…
-   (*Summarizing 3*) Create a categorical variable `season` with 4
    groups from an existing numerical variable `month`.

``` r
# Create a new tibble with a new column of seasons with 4 levels from months, save as `flow_sample_season`
(flow_sample_season <- flow_sample_factor %>% 
  mutate(season = factor(case_when(month %in% c(3, 4, 5) ~ "Spring",
                                   month %in% c(6, 7, 8) ~ "Summer",
                                   month %in% c(9, 10, 11) ~ "Autumn",
                                   month %in% c(12, 1, 2) ~ "Winter"),
                         levels = c("Spring", "Summer", "Autumn", "Winter"))))
```

    ## # A tibble: 216 x 8
    ##    station_id  year extreme_type month   day  flow sym   season
    ##    <fct>      <dbl> <fct>        <dbl> <dbl> <dbl> <fct> <fct> 
    ##  1 05BB001     1909 maximum          7     7   314 <NA>  Summer
    ##  2 05BB001     1910 maximum          6    12   230 <NA>  Summer
    ##  3 05BB001     1911 maximum          6    14   264 <NA>  Summer
    ##  4 05BB001     1912 maximum          8    25   174 <NA>  Summer
    ##  5 05BB001     1913 maximum          6    11   232 <NA>  Summer
    ##  6 05BB001     1914 maximum          6    18   214 <NA>  Summer
    ##  7 05BB001     1915 maximum          6    27   236 <NA>  Summer
    ##  8 05BB001     1916 maximum          6    20   309 <NA>  Summer
    ##  9 05BB001     1917 maximum          6    17   174 <NA>  Summer
    ## 10 05BB001     1918 maximum          6    15   345 <NA>  Summer
    ## # ... with 206 more rows
…
-   Untidy *flow\_sample*: Using `values` in `extreme_type` as
    `variables` of the `flow` column, save the new tibble as
    `flow_untidy`.

``` r
# To untidy it, Use `extreme_type` as names of the `flow` column.
(flow_untidy <- 
  flow_sample %>% 
  pivot_wider(id_cols = c(-extreme_type, -flow), 
                names_from = extreme_type,
                values_from = flow))
```

    ## # A tibble: 218 x 7
    ##    station_id  year month   day sym   maximum minimum
    ##    <chr>      <dbl> <dbl> <dbl> <chr>   <dbl>   <dbl>
    ##  1 05BB001     1909     7     7 <NA>      314      NA
    ##  2 05BB001     1910     6    12 <NA>      230      NA
    ##  3 05BB001     1911     6    14 <NA>      264      NA
    ##  4 05BB001     1912     8    25 <NA>      174      NA
    ##  5 05BB001     1913     6    11 <NA>      232      NA
    ##  6 05BB001     1914     6    18 <NA>      214      NA
    ##  7 05BB001     1915     6    27 <NA>      236      NA
    ##  8 05BB001     1916     6    20 <NA>      309      NA
    ##  9 05BB001     1917     6    17 <NA>      174      NA
    ## 10 05BB001     1918     6    15 <NA>      345      NA
    ## # ... with 208 more rows

-   We can tidy this by putting `maximum` and `minimum` back into the
    same column variable: `extreme_type`. Save it as `flow_tidy`.

``` r
(flow_tidy <-
  flow_untidy %>% 
  pivot_longer(cols = c(maximum, minimum), 
               names_to = "extreme_type",
               values_to = "flow",
               values_drop_na = T)) 
```

    ## # A tibble: 216 x 7
    ##    station_id  year month   day sym   extreme_type  flow
    ##    <chr>      <dbl> <dbl> <dbl> <chr> <chr>        <dbl>
    ##  1 05BB001     1909     7     7 <NA>  maximum        314
    ##  2 05BB001     1910     6    12 <NA>  maximum        230
    ##  3 05BB001     1911     6    14 <NA>  maximum        264
    ##  4 05BB001     1912     8    25 <NA>  maximum        174
    ##  5 05BB001     1913     6    11 <NA>  maximum        232
    ##  6 05BB001     1914     6    18 <NA>  maximum        214
    ##  7 05BB001     1915     6    27 <NA>  maximum        236
    ##  8 05BB001     1916     6    20 <NA>  maximum        309
    ##  9 05BB001     1917     6    17 <NA>  maximum        174
    ## 10 05BB001     1918     6    15 <NA>  maximum        345
    ## # ... with 206 more rows
…
